{
  "swagger": "2.0",
  "info": {
    "version": "1.0.0",
    "title": "Node-Typescript-CRUD-REST-API-Boilerplate",
    "termsOfService": "http://swagger.io/terms/",
    "description": "This is a sample server. You can find out more about Swagger at [http://swagger.io](http://swagger.io) or on [irc.freenode.net, #swagger](http://swagger.io/irc/). For this sample, you can use the api key `special-key` to test the authorization filters.",
    "contact" : {
      "email": "admin@ssyazilim.com"
    },
    "license": {
      "name": "MIT",
      "url": "https://opensource.org/licenses/MIT"
    }
  },
  "host": "api.ssyazilim.com",
  "basePath": "/",
  "tags": [
    {
      "name": "AUTH-CONTROLLER",
      "description": "API authentications process for users",
      "externalDocs": {
        "description": "More info",
        "url": "http://swagger.io"
      }
    },
    {
      "name": "USER-CONTROLLER",
      "description": "User processments for users",
      "externalDocs": {
        "description": "More info",
        "url": "http://swagger.io"
      }
    },
    {
      "name": "CARD-CONTROLLER",
      "description": "User card informations",
      "externalDocs": {
        "description": "More info",
        "url": "http://swagger.io"
      }
    },
    {
      "name": "PLAN-CONTROLLER",
      "description": "User plan informations",
      "externalDocs": {
        "description": "More info",
        "url": "http://swagger.io"
      }
    }
  ],
  "schemes": ["http","https"],
  "consumes": ["application/json"],
  "produces": ["application/json"],
  "paths": {
    "/api/public/auth/login": {
      "post": {
        "tags": ["AUTH-CONTROLLER"],
        "summary": "Login processment for the User in the system",
        "description": "",
        "operationId": "loginUser",
        "consumes": ["application/json"],
        "produces": ["application/json"],
        "parameters": [
          {
            "in": "body",
            "name": "body",
            "description": "User object that needs to be login to the system",
            "required": true,
            "schema": {
              "$ref": "#/definitions/loginUser"
            }
          }
        ],
        "responses": {
          "400": {
            "description": "BAD_REQUEST"
          },
          "401": {
            "description": "UNAUTHORIZED"
          },
          "403": {
            "description": "FORBIDDEN"
          }
        }
      }
    },
    "/api/public/auth/register": {
      "post": {
        "tags": ["AUTH-CONTROLLER"],
        "summary": "Add a new user to system",
        "description": "",
        "operationId": "addUser",
        "consumes": ["application/json"],
        "produces": ["application/json"],
        "parameters": [
          {
            "in": "body",
            "name": "body",
            "description": "User object that needs to be added for the system",
            "required": true,
            "schema": {
              "$ref": "#/definitions/addUser"
            }
          }
        ],
        "responses": {
          "400": {
            "description": "BAD_REQUEST"
          }
        }
      }
    },
    "/api/public/auth/register-verification": {
      "post": {
        "tags": ["AUTH-CONTROLLER"],
        "summary": "Activate User in the system",
        "description": "",
        "operationId": "activateUser",
        "consumes": ["application/json"],
        "produces": ["application/json"],
        "parameters": [
          {
            "in": "body",
            "name": "body",
            "description": "Activation key for the activated account",
            "required": true,
            "schema": {
              "$ref": "#/definitions/activateUser"
            }
          }
        ],
        "responses": {
          "400": {
            "description": "BAD_REQUEST"
          }
        }
      }
  },
    "/api/public/auth/password-reset": {
      "post": {
        "tags": ["AUTH-CONTROLLER"],
        "summary": "User can be reset password using this api",
        "description": "",
        "operationId": "passwordResetUser",
        "consumes": ["application/json"],
        "produces": ["application/json"],
        "parameters": [
          {
            "in": "body",
            "name": "body",
            "description": "Email for the reset password",
            "required": true,
            "schema": {
              "$ref": "#/definitions/passwordResetUser"
            }
          }
        ],
        "responses": {
          "400": {
            "description": "BAD_REQUEST"
          }
        }
      }
    },
    "/api/public/auth/password-reset-complete": {
      "post": {
        "tags": ["AUTH-CONTROLLER"],
        "summary": "User can be reset password for using this api",
        "description": "",
        "operationId": "passwordResetCompleteUser",
        "consumes": ["application/json"],
        "produces": ["application/json"],
        "parameters": [
          {
            "in": "body",
            "name": "body",
            "description": "Email for the reset password",
            "required": true,
            "schema": {
              "$ref": "#/definitions/passwordResetCompleteUser"
            }
          }
        ],
        "responses": {
          "400": {
            "description": "BAD_REQUEST"
          }
        }
      }
    },
    "/api/admin/users": {
      "get": {
        "tags": ["USER-CONTROLLER"],
        "summary": "Get all users in system",
        "description": "",
        "operationId": "getUsers",
        "consumes": ["application/json"],
        "produces": ["application/json"],
        "parameters": [
          {
            "in": "query",
            "name": "page",
            "description": "Results page you want to retrieve (1...N)",
            "required": false,
            "type": "integer"
          },
          {
            "in": "query",
            "name": "limit",
            "description": "Number of records per page",
            "required": false,
            "type": "integer"
          },
          {
            "in": "query",
            "name": "sort",
            "description": "[Sorting criteria in the format, Property] => name, asc || email, desc => Ascending: 1,2,3,4,5 | Descending: 5,4,3,2,1",
            "required": true,
            "type": "string"
          },
          {
            "in": "query",
            "name": "text",
            "description": "This search could find in [name] our system",
            "required": false,
            "type": "string"
          }
        ],
        "responses": {
          "200": {
            "description": "OK"
          }
        }
      }
    },
    "/api/public/users": {
      "patch": {
        "tags": ["USER-CONTROLLER"],
        "summary": "Edit a User in the system",
        "description": "",
        "operationId": "editUser",
        "consumes": ["application/json"],
        "produces": ["application/json"],
        "parameters": [
          {
            "in": "body",
            "name": "body",
            "description": "User object that needs to be edited to the system",
            "required": true,
            "schema": {
              "$ref": "#/definitions/editUser"
            }
          }
        ],
        "responses": {
          "400": {
            "description": "BAD_REQUEST"
          },
          "401": {
            "description": "UNAUTHORIZED"
          }
        },
        "security": [
          {
            "JWT": []
          }
        ]
      }
    },
    "/api/public/users/{userId}": {
      "delete": {
        "tags": ["USER-CONTROLLER"],
        "summary": "Delete a User in the system",
        "description": "",
        "operationId": "deleteUser",
        "consumes": ["application/json"],
        "produces": ["application/json"],
        "parameters": [
          {
            "in": "path",
            "name": "userId",
            "description": "User id to delete user",
            "required": true,
            "type": "string"
          }
        ],
        "responses": {
          "400": {
            "description": "BAD_REQUEST"
          }
        },
        "security": [
          {
            "JWT": []
          }
        ]
      }
    },
    "/api/public/users/update-profile-image": {
      "post": {
        "tags": ["USER-CONTROLLER"],
        "summary": "User can be update profile image using this api",
        "description": "",
        "operationId": "updateProfileImage",
        "consumes": ["multipart/form-data"],
        "produces": ["application/json"],
        "parameters": [
          {
            "in": "formData",
            "name": "profileImage",
            "type": "file",
            "description": "Image for update User profile image",
            "required": true
          }
        ],
        "responses": {
          "400": {
            "description": "BAD_REQUEST"
          }
        },
        "security": [
          {
            "JWT": []
          }
        ]
      }
    },
    "/api/public/cards/{userId}": {
      "get": {
        "tags": ["CARD-CONTROLLER"],
        "summary": "Get User card in the system",
        "description": "",
        "operationId": "getCards",
        "consumes": ["application/json"],
        "produces": ["application/json"],
        "parameters": [
          {
            "in": "path",
            "name": "userId",
            "description": "Get user Cards",
            "required": true,
            "type": "string"
          }
        ],
        "responses": {
          "400": {
            "description": "BAD_REQUEST"
          }
        },
        "security": [
          {
            "JWT": []
          }
        ]
      }
    },
    "/api/public/cards": {
      "post": {
        "tags": ["CARD-CONTROLLER"],
        "summary": "Add a new card to system",
        "description": "",
        "operationId": "addCard",
        "consumes": ["application/json"],
        "produces": ["application/json"],
        "parameters": [
          {
            "in": "body",
            "name": "body",
            "description": "User card that needs to be added for the system",
            "required": true,
            "schema": {
              "$ref": "#/definitions/addCard"
            }
          }
        ],
        "responses": {
          "400": {
            "description": "BAD_REQUEST"
          }
        },
        "security": [
          {
            "JWT": []
          }
        ]
      }
    },
    "/api/public/cards/{cardId}": {
      "delete": {
        "tags": ["CARD-CONTROLLER"],
        "summary": "Delete a User card in the system",
        "description": "",
        "operationId": "deleteCard",
        "consumes": ["application/json"],
        "produces": ["application/json"],
        "parameters": [
          {
            "in": "path",
            "name": "cardId",
            "description": "Card id to delete User card",
            "required": true,
            "type": "string"
          }
        ],
        "responses": {
          "400": {
            "description": "BAD_REQUEST"
          }
        },
        "security": [
          {
            "JWT": []
          }
        ]
      }
    },
    "/api/public/currencies": {
      "get": {
        "tags": ["CURRENCY-CONTROLLER"],
        "summary": "Converts the sent rate to the desired rate",
        "description": "USD = American Dollar | EUR = Euro | GBP = British Pound Sterling | CHF = Switzerland Frank | JPY = Japanese Yen | SAR = Saudi Riyal | NOK = Norwegian Krone | DKK = Danish Krone | AUD = Australian Dollar | CAD = Canada Dollar | SEK = Swedish Krone | SRU = Russian Ruble",
        "operationId": "listCurrency",
        "consumes": ["application/json"],
        "produces": ["application/json"],
        "parameters": [
          {
            "in": "query",
            "name": "from",
            "description": "USD, EUR, GBP, CHF, JPY, SAR, NOK, DKK, AUD, CAD, SEK, SRU",
            "required": true,
            "type": "string"
          },
          {
            "in": "query",
            "name": "quantity",
            "description": "You can define a number for currency amount",
            "required": true,
            "type": "number"
          },
          {
            "in": "query",
            "name": "to",
            "description": "USD, EUR, GBP, CHF, JPY, SAR, NOK, DKK, AUD, CAD, SEK, SRU",
            "required": true,
            "type": "string"
          }
        ],
        "responses": {
          "200": {
            "description": "OK"
          },
          "400": {
            "description": "BAD_REQUEST"
          },
          "401": {
            "description": "UNAUTHORIZED"
          }
        },
        "security": [
          {
            "JWT": []
          }
        ]
      }
    },
    "/api/admin/currencies": {
      "post": {
        "tags": ["CURRENCY-CONTROLLER"],
        "summary": "Update all currency informations in the system and give back to users",
        "description": "",
        "operationId": "listAndCreateCurrency",
        "consumes": ["application/json"],
        "produces": ["application/json"],
        "parameters": [
          {
            "name": "body",
            "in": "body",
            "description": "Permission for trigger currency api",
            "required": true,
            "schema": {
                "$ref": "#/definitions/userRole"
            }
          }
        ],
        "responses": {
          "200": {
            "description": "OK"
          },
          "400": {
            "description": "BAD_REQUEST"
          },
          "401": {
            "description": "UNAUTHORIZED"
          }
        },
        "security": [
          {
            "JWT": []
          }
        ]
      }
    },
    "/api/public/plans": {
      "get": {
        "tags": ["PLAN-CONTROLLER"],
        "summary": "Get all plans in system",
        "description": "",
        "operationId": "getPlans",
        "consumes": ["application/json"],
        "produces": ["application/json"],
        "parameters": [],
        "responses": {
          "200": {
            "description": "OK"
          },
          "400": {
            "description": "BAD_REQUEST"
          },
          "401": {
            "description": "UNAUTHORIZED"
          },
          "500": {
            "description": "INTERNAL_SERVER_ERROR"
          }
        },
        "security": [
          {
            "JWT": []
          }
        ]
      }
    },
    "/api/admin/plan": {
      "post": {
        "tags": ["PLAN-CONTROLLER"],
        "summary": "Add a new plan to the system",
        "description": "",
        "operationId": "addPlan",
        "consumes": ["application/json"],
        "produces": ["application/json"],
        "parameters": [
          {
            "in": "body",
            "name": "body",
            "description": "User plan that needs to be added for the system",
            "required": true,
            "schema": {
              "$ref": "#/definitions/addPlan"
            }
          }
        ],
        "responses": {
          "200": {
            "description": "OK"
          },
          "400": {
            "description": "BAD_REQUEST"
          },
          "401": {
            "description": "UNAUTHORIZED"
          },
          "500": {
            "description": "INTERNAL_SERVER_ERROR"
          }
        },
        "security": [
          {
            "JWT": []
          }
        ]
      }
    },
    "/api/admin/plan/{planId}": {
      "patch": {
        "tags": ["PLAN-CONTROLLER"],
        "summary": "Update a plan to the system",
        "description": "",
        "operationId": "updatePlan",
        "consumes": ["application/json"],
        "produces": ["application/json"],
        "parameters": [
          {
            "in": "path",
            "name": "planId",
            "description": "planId to update User plans",
            "required": true,
            "type": "string"
          },
          {
            "in": "body",
            "name": "body",
            "description": "User plan that needs to be updated for the system",
            "required": true,
            "schema": {
              "$ref": "#/definitions/addPlan"
            }
          }
        ],
        "responses": {
          "200": {
            "description": "OK"
          },
          "400": {
            "description": "BAD_REQUEST"
          },
          "401": {
            "description": "UNAUTHORIZED"
          },
          "500": {
            "description": "INTERNAL_SERVER_ERROR"
          }
        },
        "security": [
          {
            "JWT": []
          }
        ]
      },
      "delete": {
        "tags": ["PLAN-CONTROLLER"],
        "summary": "Delete a User plan in the system",
        "description": "",
        "operationId": "deletePlan",
        "consumes": ["application/json"],
        "produces": ["application/json"],
        "parameters": [
          {
            "in": "path",
            "name": "cardId",
            "description": "Card id to delete User card",
            "required": true,
            "type": "string"
          }
        ],
        "responses": {
          "400": {
            "description": "BAD_REQUEST"
          }
        },
        "security": [
          {
            "JWT": []
          }
        ]
      }
    }
  },
  "definitions": {
    "serverResponses": {
      "type": "object",
      "description": "This is Success and Error answers from the Backend services. If need status code check headers",
      "properties": {
        "Success Request =": {
          "$ref": "#/definitions/success"
        },
        "Failure Request =": {
          "$ref": "#/definitions/error"
        }
      }
    },
    "addUser": {
      "type": "object",
      "required": ["name", "email", "phoneNumber", "password"],
      "properties": {
        "name": {
          "type": "string"
        },
        "email" : {
          "type": "string"
        },
        "phoneNumber": {
          "type": "string"
        },
        "password": {
          "type": "string"
        }
      }
    },
    "activateUser": {
      "type": "object",
      "required": ["key"],
      "properties": {
        "key": {
          "type": "string"
        }
      }
    },
    "passwordResetUser": {
      "type": "object",
      "required": ["email"],
      "properties": {
        "email": {
          "type": "string"
        }
      }
    },
    "passwordResetCompleteUser": {
      "type": "object",
      "required": ["email", "key", "newPassword"],
      "properties": {
        "email": {
          "type": "string"
        },
        "key": {
          "type": "string"
        },
        "newPassword": {
          "type": "string"
        }
      }
    },
    "loginUser": {
      "type": "object",
      "required": ["email", "password"],
      "properties": {
        "email" : {
          "type": "string"
        },
        "password": {
          "type": "string"
        }
      }
    },
    "editUser": {
      "type": "object",
      "properties": {
        "name": {
          "type": "string"
        },
        "email" : {
          "type": "string"
        },
        "password": {
          "type": "string"
        }
      }
    },
    "addCard": {
      "type": "object",
      "required": ["billing", "cardAlias", "cardHolderName", "cardNumber", "cvc", "expireMonth", "expireYear", "lastFourDigits"],
      "properties": {
        "billing": {
          "type": "object",
          "properties": {
            "address": {
              "type": "string"
            },
            "city": {
              "type": "string"
            },
            "contactName": {
              "type": "string"
            },
            "country": {
              "type": "string"
            },
            "zipCode": {
              "type": "string"
            }
          }
        },
        "cardAlias": {
          "type": "string"
        },
        "cardHolderName": {
          "type": "string"
        },
        "cardNumber": {
          "type": "string"
        },
        "cvc": {
          "type": "string"
        },
        "expireMonth": {
          "type": "string"
        },
        "expireYear": {
          "type": "string"
        },
        "lastFourDigits": {
          "type": "string"
        }
      }
    },
    "addPlan": {
      "type": "object",
      "required": ["code", "name", "price", "dayRange", "role"],
      "properties": {
        "code": {
          "type": "string"
        },
        "name": {
          "type": "string"
        },
        "description": {
          "type": "string"
        },
        "price": {
          "type": "string"
        },
        "dayRange": {
          "type": "string"
        },
        "role": {
          "type": "array",
          "items": {
            "type": "string",
            "description": "It can be include 'ROLE_USER' or 'ROLE_ADMIN'",
            "enum": ["ROLE_USER", "ROLE_ADMIN"]
          }
        }
      }
    },
    "userRole": {
      "type": "object",
      "required": ["role"],
      "properties": {
        "role": {
          "type": "array",
          "items": {
            "type": "string",
            "description": "It can be include 'ROLE_USER' or 'ROLE_ADMIN'",
            "enum": ["ROLE_USER", "ROLE_ADMIN"]
          }
        }
      }
    },
    "success": {
      "type": "object",
      "example": "'success': {'message': '...', 'data': [{...}, {...}]}",
      "properties": {
        "message": {
          "type": "string"
        },
        "data": {
          "type": "object"
        }
      }
    },
    "error": {
      "type": "object",
      "example": "'error': {'message': '...'}",
      "properties": {
        "message": {
          "type": "string"
        }
      }
    }
  },
  "securityDefinitions": {
    "JWT": {
      "type": "apiKey",
      "name": "Authorization",
      "in": "header"
    }
  },
  "externalDocs": {
    "description": "Find out more about Swagger",
    "url": "http://swagger.io"
  }
}
